c:\users\jgrigley\documents\visual studio 2013\projects\tetris\tetris\debug\tetris.pch
c:\users\jgrigley\documents\visual studio 2013\projects\tetris\tetris\debug\vc120.pdb
c:\users\jgrigley\documents\visual studio 2013\projects\tetris\tetris\debug\vc120.idb
c:\users\jgrigley\documents\visual studio 2013\projects\tetris\tetris\debug\stdafx.obj
c:\users\jgrigley\documents\visual studio 2013\projects\tetris\tetris\debug\block.obj
c:\users\jgrigley\documents\visual studio 2013\projects\tetris\tetris\debug\field.obj
c:\users\jgrigley\documents\visual studio 2013\projects\tetris\tetris\debug\hud.obj
c:\users\jgrigley\documents\visual studio 2013\projects\tetris\tetris\debug\shape.obj
c:\users\jgrigley\documents\visual studio 2013\projects\tetris\tetris\debug\tetris.obj
c:\users\jgrigley\documents\visual studio 2013\projects\tetris\tetris\debug\utility.obj
c:\users\jgrigley\documents\visual studio 2013\projects\tetris\debug\tetris.ilk
c:\users\jgrigley\documents\visual studio 2013\projects\tetris\debug\tetris.exe
c:\users\jgrigley\documents\visual studio 2013\projects\tetris\debug\tetris.pdb
c:\users\jgrigley\documents\visual studio 2013\projects\tetris\tetris\debug\tetris.tlog\cl.command.1.tlog
c:\users\jgrigley\documents\visual studio 2013\projects\tetris\tetris\debug\tetris.tlog\cl.read.1.tlog
c:\users\jgrigley\documents\visual studio 2013\projects\tetris\tetris\debug\tetris.tlog\cl.write.1.tlog
c:\users\jgrigley\documents\visual studio 2013\projects\tetris\tetris\debug\tetris.tlog\link.command.1.tlog
c:\users\jgrigley\documents\visual studio 2013\projects\tetris\tetris\debug\tetris.tlog\link.read.1.tlog
c:\users\jgrigley\documents\visual studio 2013\projects\tetris\tetris\debug\tetris.tlog\link.write.1.tlog
